{
  "requestID": "32693",
  "consumerInfo": "Example GO Client",
  "scopeName": "Mortgage-Lending",
  "dataModelName": "Servicing-PostgreSQL",
  "dimensions": [
    "cityname",
    "currency",
    "countryname"
  ],
  "metrics": [
    "loanamount",
    "propertyprice"
  ],
  "filters": {
    "dateRanges": [
      {
        "key": "closingdate",
        "from": "2015-01-01",
        "to": "2017-12-31"
      }
    ],
    "singleKeys": [
      {
        "key": "propertycityid",
        "operation": "EQUALS",
        "values": [
          "30",
          "35",
          "26"
        ]
      },
      {
        "key": "countryname",
        "operation": "EQUALS",
        "values": [
          "Poland"
        ]
      }
    ],
    "singleValues": [
      {
        "keys": [
          "closingdate",
          "approvaldate"
        ],
        "operation": null,
        "value": "2012-12-25"
      }
    ]
  },
  "sortings": {
    "dimensions": [
      {
        "key": "currency",
        "direction": "ASC"
      },
      {
        "key": "cityname",
        "direction": "DESC"
      }
    ]
  },
  "options": {
    "rows": {
      "limitRowsTo": 100
    },
    "arguments": {}
  },
  "securityRole": ""
}